{
	"info": {
		"_postman_id": "df304598-6407-413c-90ff-28974a285989",
		"name": "Rest_API",
		"schema": "https://schema.getpostman.com/json/collection/v2.1.0/collection.json",
		"_exporter_id": "33176815"
	},
	"item": [
		{
			"name": "Post_API",
			"item": [
				{
					"name": "PostTC1",
					"event": [
						{
							"listen": "test",
							"script": {
								"exec": [
									"//url-https://reqres.in/api/users\r",
									"//Validate the Status Code\r",
									"pm.test(\"validate the status code 201\", function() {\r",
									"    pm.response.to.have.status(201)\r",
									"});\r",
									"\r",
									"//First fatch the expected  req_body\r",
									"var req_body=pm.request.body.raw;\r",
									"console.log(req_body);\r",
									"var requestBody=JSON.parse(req_body);\r",
									"console.log(requestBody);\r",
									"\r",
									"//fatch the name and job parameters from the req_body\r",
									"var req_name=requestBody.name;\r",
									"var req_job= requestBody.job;\r",
									"\r",
									"//Fatch the res_body\r",
									"var res_body=pm.response.json();\r",
									"console.log(res_body);\r",
									"\r",
									"//fatch the name,job,id n date parameters from the res_body\r",
									"var res_name=res_body.name;\r",
									"var res_job=res_body.job;\r",
									"var res_id=res_body.id;\r",
									"var res_date=res_body.createdAt;\r",
									"\r",
									"//Validate the response body\r",
									"pm.test(\"validate the res_name\", function(){\r",
									"    pm.expect(res_name).to.eqls(req_name)\r",
									"});\r",
									"pm.test(\"validate the res_job\", function() {\r",
									"    pm.expect(req_job).to.eqls(res_job)\r",
									"});\r",
									"pm.test(\"validate the res_id\", function() {\r",
									"    pm.expect(res_id).to.not.null\r",
									"    pm.expect(res_id).to.have.length(3)\r",
									"});\r",
									"var exp_date=new Date().toISOString().slice(0,13);\r",
									"console.log(exp_date);\r",
									"pm.test(\"Validate res_date\", function() {\r",
									"    pm.expect(res_date.slice(0,13)).to.eqls(exp_date)\r",
									"});\r",
									"\r",
									""
								],
								"type": "text/javascript"
							}
						}
					],
					"request": {
						"method": "POST",
						"header": [],
						"body": {
							"mode": "raw",
							"raw": "{\r\n    \"name\": \"morpheus\",\r\n    \"job\": \"leader\"\r\n}",
							"options": {
								"raw": {
									"language": "json"
								}
							}
						},
						"url": {
							"raw": "{{Post_url}}",
							"host": [
								"{{Post_url}}"
							]
						}
					},
					"response": []
				}
			]
		},
		{
			"name": "Put_API",
			"item": [
				{
					"name": "PutTC1",
					"event": [
						{
							"listen": "test",
							"script": {
								"exec": [
									"//url-https://reqres.in/api/users/2\r",
									"//Validate the status code\r",
									"pm.test(\"Validate the status code 200\", function() {\r",
									"    pm.response.to.have.status(200)\r",
									"});\r",
									"//fatch expected request body\r",
									"var req_body=pm.request.body.raw;\r",
									"console.log(req_body);\r",
									"requestBody=JSON.parse(req_body);\r",
									"console.log(requestBody);\r",
									"\r",
									"//fatch the name and job parameters from the req_body\r",
									"var req_name=requestBody.name;\r",
									"var req_job=requestBody.job;\r",
									"\r",
									"//Validate the responseBody\r",
									"//fatch the name, id, job n date from the response body\r",
									"var responseBody=pm.response.json();\r",
									"console.log(responseBody);\r",
									"\r",
									"var res_name=responseBody.name;\r",
									"var res_job=responseBody.job;\r",
									"var res_date=responseBody.updatedAt;\r",
									"\r",
									"//validate the responseBody\r",
									"pm.test(\"Validate the res_name\", function() {\r",
									"    pm.expect(res_name).to.eqls(req_name)\r",
									"});\r",
									"pm.test(\"Validate the res_job\", function() {\r",
									"    pm.expect(req_job).to.eqls(res_job)\r",
									"});\r",
									"var exp_date=new Date().toISOString().slice(0,13);\r",
									"console.log(exp_date)\r",
									"pm.test(\"Validate res_date\", function() {\r",
									"    pm.expect(res_date.slice(0,13)).to.eqls(exp_date)\r",
									"});\r",
									"\r",
									"\r",
									"\r",
									""
								],
								"type": "text/javascript"
							}
						}
					],
					"request": {
						"method": "PUT",
						"header": [],
						"body": {
							"mode": "raw",
							"raw": "{\r\n    \"name\": \"morpheus\",\r\n    \"job\": \"zion resident\"\r\n}",
							"options": {
								"raw": {
									"language": "json"
								}
							}
						},
						"url": {
							"raw": "{{Put_url}}",
							"host": [
								"{{Put_url}}"
							]
						}
					},
					"response": []
				}
			]
		},
		{
			"name": "Patch_API",
			"item": [
				{
					"name": "PatchTC1",
					"event": [
						{
							"listen": "test",
							"script": {
								"exec": [
									"//urlhttps://reqres.in/api/users/2\r",
									"//Validate the status code\r",
									"pm.test(\"Validate the status code 200\", function() {\r",
									"    pm.response.to.have.status(200)\r",
									"});\r",
									"\r",
									"//fatch the expected req_body\r",
									"var req_body=pm.request.body.raw;\r",
									"console.log(req_body);\r",
									"var requestBody=JSON.parse(req_body);\r",
									"console.log(requestBody);\r",
									"\r",
									"//fatch name and job parameters from request body\r",
									"var req_name=requestBody.name;\r",
									"var req_job=requestBody.job;\r",
									"\r",
									"//Validate the response body\r",
									"//first fatch the res_body\r",
									"var res_body=pm.response.json();\r",
									"console.log(res_body);\r",
									"\r",
									"var res_name=res_body.name;\r",
									"var res_job=res_body.job;\r",
									"var res_date=res_body.updatedAt;\r",
									"\r",
									"\r",
									"//validate the name,job n date from the res_body\r",
									"pm.test(\"Vlaidate the res_name\", function() {\r",
									"    pm.expect(res_name).to.eqls(req_name)\r",
									"});\r",
									"pm.test(\"Validate the res_job\", function() {\r",
									"    pm.expect(res_job).to.eqls(req_job)\r",
									"});\r",
									"\r",
									"var date = require('moment');\r",
									"\r",
									"pm.test(\"Validate the res_data format\", function () {\r",
									"    pm.expect(res_date).to.include(date(res_date).format('YYYY-MM-DD'));\r",
									"});\r",
									"var exp_date=new Date().toISOString().slice(0,11);\r",
									"console.log(exp_date);\r",
									"pm.test(\"Validate res_date\", function() {\r",
									"    pm.expect(res_date.slice(0,11)).to.eqls(exp_date)\r",
									"});\r",
									"\r",
									""
								],
								"type": "text/javascript"
							}
						}
					],
					"request": {
						"method": "PATCH",
						"header": [],
						"body": {
							"mode": "raw",
							"raw": "{\r\n    \"name\": \"morpheus\",\r\n    \"job\": \"zion resident\"\r\n}",
							"options": {
								"raw": {
									"language": "json"
								}
							}
						},
						"url": {
							"raw": "{{Patch_url}}",
							"host": [
								"{{Patch_url}}"
							]
						}
					},
					"response": []
				}
			]
		},
		{
			"name": "Get_API",
			"item": [
				{
					"name": "GetTC2",
					"event": [
						{
							"listen": "test",
							"script": {
								"exec": [
									"//url-https://reqres.in/api/users?page=2\r",
									"//Validate the status code\r",
									"pm.test(\"Validate the status code 200\", function()\r",
									" {  pm.response.to.have.status(200)\r",
									"});\r",
									"\r",
									"//declear expected result\r",
									"const id=[7,8,9,10,11,12]\r",
									"const email=[\"michael.lawson@reqres.in\",\"lindsay.ferguson@reqres.in\",\"tobias.funke@reqres.in\",\"byron.fields@reqres.in\",\"george.edwards@reqres.in\",\"rachel.howell@reqres.in\"]\r",
									"const first_name=[\"Michael\",\"Lindsay\",\"Tobias\",\"Byron\",\"George\",\"Rachel\"]\r",
									"const last_name=[\"Lawson\",\"Ferguson\",\"Funke\",\"Fields\",\"Edwards\",\"Howell\"]\r",
									"const avatar= [\"https://reqres.in/img/faces/7-image.jpg\",\"https://reqres.in/img/faces/8-image.jpg\",\"https://reqres.in/img/faces/9-image.jpg\",\"https://reqres.in/img/faces/10-image.jpg\",\"https://reqres.in/img/faces/11-image.jpg\",\"https://reqres.in/img/faces/12-image.jpg\"]\r",
									"//Validate the response body\r",
									"//fatch the response body\r",
									"var res_body=pm.response.json();\r",
									"var dataArray = res_body.data;\r",
									"var end = Object.keys(dataArray).length;\r",
									"//Step 3.4 : Fetch and validate response body params\r",
									"for (i=0 ; i<end ; i++)  \r",
									"{\r",
									"//Step 3.4.1 : Fetch expected results\r",
									"var exp_id = id[i];\r",
									"var exp_email=email[i];\r",
									"var exp_first_name=first_name[i];\r",
									"var exp_lastname=last_name[i];\r",
									"var exp_avatar=avatar[i];\r",
									"\r",
									"//Fetch response body params\r",
									"var res_id=res_body.data[i].id;\r",
									"var res_email = res_body.data[i].email;\r",
									"var res_first_name = res_body.data[i].first_name;\r",
									"var res_last_name = res_body.data[i].last_name;\r",
									"var res_avatar = res_body.data[i].avatar;\r",
									"\r",
									"//Step 3.4.3 : Validate response body\r",
									"     pm.test(\"Validate id at Index \" +i , function() {\r",
									"     pm.expect(res_id).to.eqls(exp_id);\r",
									"     });\r",
									"     \r",
									"     pm.test(\"Validate first_name at Index \" +i , function() {\r",
									"         pm.expect(res_email).to.eqls(exp_email);\r",
									"     });\r",
									"     pm.test(\"Validate id at Index \" +i , function() {\r",
									"         pm.expect(res_first_name).to.eqls(exp_first_name);\r",
									"     });\r",
									"      pm.test(\"Validate id at Index \" +i , function() {\r",
									"        pm.expect(res_last_name).to.eqls(exp_lastname);\r",
									"     });\r",
									"     pm.test(\"Validate id at Index \" +i , function() {\r",
									"        pm.expect(res_avatar).to.eqls(exp_avatar);\r",
									"     });\r",
									"     }\r",
									"     var res_page= res_body.page;\r",
									"     pm.test(\"validate page\", function() {\r",
									"        pm.expect(res_page).to.eqls(2)\r",
									"     });\r",
									"\r",
									""
								],
								"type": "text/javascript"
							}
						}
					],
					"request": {
						"method": "GET",
						"header": [],
						"url": {
							"raw": "{{Get_url}}",
							"host": [
								"{{Get_url}}"
							]
						}
					},
					"response": []
				}
			]
		}
	],
	"event": [
		{
			"listen": "prerequest",
			"script": {
				"type": "text/javascript",
				"exec": [
					""
				]
			}
		},
		{
			"listen": "test",
			"script": {
				"type": "text/javascript",
				"exec": [
					""
				]
			}
		}
	],
	"variable": [
		{
			"key": "Coll_name",
			"value": "",
			"type": "string"
		},
		{
			"key": "Coll_job",
			"value": "",
			"type": "string"
		},
		{
			"key": "Col_Excel_Name",
			"value": "",
			"type": "string"
		},
		{
			"key": "Coll_Excel_Job",
			"value": "",
			"type": "string"
		},
		{
			"key": "Start",
			"value": "",
			"type": "string"
		},
		{
			"key": "End",
			"value": "",
			"type": "string"
		}
	]
}